{
  "images" : [
    {
      "filename" : "bgsigninar.png",
      "idiom" : "universal",
      "language-direction" : "left-to-right",
      "scale" : "1x"
    },
    {
      "filename" : "bgsignin.png",
      "idiom" : "universal",
      "language-direction" : "right-to-left",
      "scale" : "1x"
    },
    {
      "filename" : "bgsigninar@2x.png",
      "idiom" : "universal",
      "language-direction" : "left-to-right",
      "scale" : "2x"
    },
    {
      "filename" : "bgsignin@2x.png",
      "idiom" : "universal",
      "language-direction" : "right-to-left",
      "scale" : "2x"
    },
    {
      "filename" : "bgsigninar@3x.png",
      "idiom" : "universal",
      "language-direction" : "left-to-right",
      "scale" : "3x"
    },
    {
      "filename" : "bgsignin@3x.png",
      "idiom" : "universal",
      "language-direction" : "right-to-left",
      "scale" : "3x"
    }
  ],
  "info" : {
    "author" : "xcode",
    "version" : 1
  }
}
